user_Id;friend_Id
1;52
1;69
1;99
1;52
1;77
1;40
1;51
1;90
1;100
1;49
1;10
1;73
1;14
1;65
1;94
1;15
1;80
1;73
1;91
2;76
2;45
2;81
2;97
2;13
2;5
2;99
2;31
2;19
2;6
2;4
2;31
2;67
2;82
2;60
2;40
2;9
2;51
2;27
2;83
3;100
3;40
3;9
3;70
3;42
3;51
3;10
3;16
3;17
3;31
3;93
3;32
3;69
3;64
3;34
3;98
3;100
3;35
3;64
3;74
4;91
4;26
4;82
4;7
4;95
4;16
4;53
4;70
4;27
4;75
4;58
4;63
4;44
4;4
4;16
4;56
4;41
4;93
4;93
4;44
5;96
5;100
5;54
5;35
5;37
5;41
5;20
5;78
5;14
5;74
5;7
5;42
5;12
5;99
5;95
5;59
5;97
5;43
5;49
5;44
6;82
6;73
6;59
6;66
6;37
6;36
6;34
6;29
6;21
6;100
6;19
6;63
6;91
6;48
6;55
6;82
6;53
6;44
6;86
6;81
7;72
7;74
7;55
7;67
7;80
7;4
7;91
7;3
7;73
7;8
7;70
7;29
7;75
7;98
7;98
7;22
7;23
7;95
7;88
7;7
8;54
8;25
8;23
8;97
8;52
8;88
8;46
8;72
8;32
8;4
8;55
8;96
8;92
8;42
8;8
8;20
8;48
8;72
8;94
8;75
9;20
9;91
9;42
9;85
9;87
9;17
9;70
9;21
9;63
9;84
9;97
9;84
9;27
9;24
9;63
9;69
9;56
9;95
9;46
9;81
10;29
10;44
10;19
10;71
10;66
10;79
10;58
10;60
10;5
10;36
10;43
10;2
10;83
10;46
10;92
10;65
10;55
10;1
10;4
10;28
11;82
11;65
11;77
11;42
11;15
11;57
11;34
11;92
11;8
11;18
11;20
11;23
11;36
11;52
11;38
11;99
11;1
11;14
11;94
11;89
12;43
12;23
12;59
12;11
12;93
12;79
12;5
12;46
12;61
12;85
12;56
12;78
12;41
12;71
12;52
12;57
12;38
12;50
12;94
12;77
13;69
13;89
13;85
13;56
13;99
13;71
13;98
13;64
13;71
13;8
13;88
13;87
13;75
13;13
13;26
13;30
13;2
13;73
13;100
13;21
14;82
14;53
14;78
14;60
14;85
14;79
14;69
14;33
14;85
14;23
14;45
14;66
14;27
14;23
14;47
14;65
14;66
14;51
14;1
14;10
15;16
15;52
15;94
15;17
15;65
15;9
15;29
15;55
15;54
15;94
15;86
15;54
15;81
15;26
15;52
15;66
15;4
15;68
15;2
15;76
16;3
16;30
16;29
16;65
16;88
16;27
16;45
16;72
16;34
16;37
16;91
16;3
16;5
16;38
16;82
16;15
16;72
16;21
16;28
16;33
17;29
17;47
17;37
17;91
17;34
17;5
17;85
17;45
17;56
17;90
17;58
17;9
17;58
17;2
17;3
17;62
17;23
17;3
17;26
17;79
18;87
18;9
18;32
18;90
18;60
18;96
18;6
18;44
18;19
18;78
18;70
18;54
18;69
18;76
18;18
18;76
18;1
18;25
18;2
18;6
19;53
19;64
19;10
19;64
19;4
19;41
19;86
19;46
19;60
19;19
19;38
19;89
19;16
19;12
19;53
19;87
19;46
19;1
19;91
19;33
20;19
20;49
20;64
20;32
20;42
20;10
20;25
20;11
20;36
20;98
20;34
20;93
20;42
20;1
20;44
20;39
20;31
20;16
20;39
20;81
21;73
21;19
21;47
21;39
21;60
21;83
21;69
21;91
21;92
21;9
21;12
21;29
21;32
21;1
21;85
21;84
21;42
21;38
21;67
21;97
22;91
22;77
22;12
22;81
22;49
22;33
22;57
22;71
22;54
22;95
22;56
22;38
22;80
22;79
22;29
22;83
22;99
22;66
22;59
22;53
23;83
23;31
23;69
23;13
23;11
23;63
23;96
23;20
23;98
23;62
23;14
23;5
23;63
23;27
23;93
23;57
23;90
23;95
23;85
23;11
24;54
24;6
24;62
24;78
24;76
24;59
24;5
24;36
24;42
24;80
24;57
24;8
24;16
24;24
24;25
24;21
24;70
24;23
24;28
24;80
25;92
25;26
25;1
25;7
25;47
25;59
25;79
25;17
25;100
25;47
25;17
25;3
25;90
25;27
25;13
25;36
25;54
25;99
25;8
25;50
26;79
26;87
26;70
26;6
26;63
26;74
26;80
26;6
26;67
26;53
26;77
26;23
26;60
26;67
26;71
26;47
26;86
26;73
26;52
26;8
27;48
27;41
27;90
27;92
27;26
27;8
27;30
27;6
27;83
27;60
27;38
27;16
27;72
27;80
27;80
27;28
27;94
27;46
27;13
27;44
28;78
28;54
28;91
28;29
28;7
28;51
28;49
28;60
28;83
28;55
28;10
28;6
28;82
28;65
28;46
28;27
28;26
28;70
28;16
28;56
29;72
29;85
29;28
29;32
29;58
29;10
29;23
29;29
29;74
29;32
29;11
29;10
29;1
29;15
29;40
29;24
29;86
29;90
29;12
29;60
30;98
30;49
30;9
30;21
30;2
30;77
30;33
30;84
30;40
30;44
30;7
30;38
30;45
30;77
30;31
30;78
30;15
30;58
30;82
30;56
31;29
31;26
31;84
31;69
31;19
31;47
31;90
31;28
31;91
31;81
31;7
31;22
31;38
31;20
31;83
31;95
31;17
31;7
31;6
31;10
32;3
32;43
32;75
32;79
32;21
32;60
32;72
32;24
32;29
32;83
32;73
32;43
32;84
32;81
32;16
32;45
32;86
32;100
32;95
32;13
33;5
33;86
33;60
33;87
33;81
33;7
33;23
33;17
33;82
33;80
33;42
33;50
33;74
33;8
33;28
33;83
33;19
33;49
33;42
33;50
34;98
34;19
34;31
34;81
34;18
34;13
34;19
34;75
34;74
34;6
34;35
34;79
34;21
34;65
34;46
34;68
34;54
34;56
34;100
34;94
35;11
35;34
35;41
35;59
35;88
35;31
35;60
35;4
35;95
35;5
35;55
35;87
35;82
35;25
35;9
35;42
35;55
35;72
35;46
35;50
36;2
36;35
36;6
36;76
36;94
36;58
36;52
36;40
36;38
36;90
36;13
36;30
36;54
36;39
36;38
36;29
36;94
36;40
36;87
36;67
37;82
37;49
37;73
37;68
37;76
37;68
37;27
37;89
37;63
37;58
37;75
37;67
37;94
37;58
37;6
37;9
37;44
37;83
37;55
37;55
38;45
38;67
38;27
38;71
38;37
38;60
38;68
38;26
38;98
38;73
38;43
38;62
38;56
38;55
38;50
38;38
38;98
38;87
38;68
38;71
39;62
39;51
39;11
39;87
39;71
39;94
39;38
39;8
39;49
39;88
39;76
39;33
39;25
39;5
39;34
39;57
39;26
39;73
39;99
39;76
40;86
40;8
40;62
40;73
40;66
40;85
40;33
40;38
40;13
40;85
40;27
40;59
40;33
40;34
40;87
40;37
40;98
40;80
40;67
40;69
41;47
41;46
41;54
41;84
41;54
41;95
41;17
41;95
41;56
41;12
41;29
41;27
41;63
41;19
41;26
41;83
41;21
41;59
41;96
41;62
42;24
42;13
42;39
42;15
42;96
42;12
42;77
42;49
42;57
42;37
42;10
42;7
42;65
42;14
42;72
42;38
42;97
42;67
42;55
42;11
43;19
43;45
43;28
43;72
43;83
43;25
43;26
43;39
43;41
43;85
43;92
43;31
43;29
43;54
43;65
43;92
43;58
43;94
43;16
43;47
44;12
44;89
44;61
44;61
44;40
44;8
44;74
44;55
44;15
44;85
44;12
44;20
44;31
44;52
44;100
44;76
44;94
44;43
44;7
44;89
45;75
45;14
45;65
45;53
45;34
45;48
45;52
45;63
45;55
45;67
45;72
45;82
45;97
45;32
45;3
45;44
45;44
45;19
45;84
45;87
46;81
46;61
46;39
46;92
46;17
46;89
46;35
46;75
46;94
46;74
46;91
46;73
46;12
46;64
46;86
46;34
46;26
46;92
46;50
46;70
47;85
47;60
47;89
47;77
47;61
47;26
47;49
47;71
47;79
47;6
47;57
47;61
47;75
47;5
47;72
47;19
47;30
47;16
47;6
47;32
48;69
48;75
48;99
48;82
48;81
48;81
48;94
48;69
48;11
48;11
48;18
48;80
48;1
48;55
48;92
48;83
48;82
48;46
48;37
48;94
49;95
49;38
49;25
49;77
49;43
49;84
49;30
49;9
49;55
49;98
49;25
49;89
49;11
49;9
49;60
49;73
49;32
49;95
49;48
49;28
50;55
50;64
50;14
50;71
50;16
50;14
50;84
50;86
50;10
50;45
50;2
50;90
50;58
50;92
50;49
50;4
50;100
50;81
50;65
50;53
51;1
51;70
51;89
51;38
51;33
51;86
51;60
51;41
51;2
51;57
51;93
51;89
51;48
51;30
51;42
51;79
51;62
51;43
51;93
51;91
52;12
52;73
52;10
52;81
52;30
52;22
52;37
52;81
52;44
52;45
52;24
52;1
52;70
52;95
52;78
52;11
52;14
52;4
52;53
52;69
53;82
53;24
53;41
53;47
53;51
53;82
53;100
53;78
53;95
53;84
53;2
53;38
53;99
53;96
53;24
53;52
53;22
53;35
53;95
53;66
54;87
54;16
54;72
54;2
54;33
54;39
54;84
54;70
54;80
54;70
54;47
54;99
54;56
54;7
54;77
54;21
54;22
54;18
54;96
54;14
55;67
55;93
55;76
55;28
55;30
55;93
55;11
55;81
55;23
55;30
55;50
55;96
55;98
55;9
55;3
55;71
55;71
55;33
55;15
55;99
56;13
56;51
56;97
56;14
56;2
56;61
56;69
56;95
56;66
56;94
56;74
56;75
56;17
56;22
56;52
56;87
56;54
56;54
56;57
56;76
57;61
57;53
57;44
57;87
57;70
57;9
57;79
57;20
57;30
57;46
57;29
57;25
57;30
57;64
57;61
57;71
57;87
57;14
57;66
57;49
58;47
58;90
58;72
58;1
58;45
58;75
58;1
58;22
58;41
58;16
58;92
58;4
58;19
58;24
58;91
58;63
58;58
58;77
58;61
58;84
59;68
59;25
59;91
59;14
59;52
59;32
59;70
59;22
59;36
59;26
59;78
59;84
59;58
59;96
59;81
59;7
59;84
59;54
59;73
59;41
60;65
60;65
60;92
60;23
60;31
60;34
60;29
60;45
60;12
60;62
60;19
60;93
60;84
60;21
60;38
60;95
60;11
60;67
60;84
60;69
61;38
61;96
61;48
61;95
61;86
61;7
61;94
61;56
61;25
61;42
61;95
61;97
61;81
61;94
61;65
61;72
61;11
61;91
61;32
61;69
62;25
62;16
62;60
62;32
62;2
62;76
62;35
62;62
62;93
62;35
62;86
62;10
62;59
62;5
62;76
62;73
62;76
62;91
62;70
62;67
63;67
63;25
63;52
63;21
63;55
63;74
63;90
63;99
63;78
63;58
63;42
63;74
63;2
63;57
63;74
63;60
63;30
63;10
63;25
63;36
64;45
64;72
64;32
64;78
64;10
64;29
64;77
64;47
64;9
64;50
64;27
64;55
64;30
64;8
64;74
64;82
64;82
64;32
64;14
64;74
65;33
65;40
65;72
65;3
65;84
65;18
65;51
65;41
65;69
65;67
65;74
65;63
65;40
65;24
65;26
65;45
65;86
65;35
65;30
65;26
66;90
66;60
66;80
66;98
66;73
66;6
66;87
66;11
66;19
66;36
66;20
66;70
66;87
66;85
66;29
66;63
66;78
66;27
66;50
66;9
67;86
67;93
67;89
67;70
67;48
67;68
67;56
67;78
67;42
67;25
67;66
67;37
67;18
67;61
67;6
67;90
67;69
67;62
67;76
67;57
68;69
68;40
68;74
68;36
68;96
68;33
68;49
68;70
68;95
68;12
68;70
68;68
68;29
68;10
68;81
68;39
68;89
68;69
68;60
68;82
69;15
69;51
69;51
69;69
69;70
69;48
69;86
69;95
69;24
69;52
69;8
69;78
69;76
69;81
69;69
69;45
69;49
69;1
69;64
69;5
70;90
70;72
70;98
70;67
70;18
70;2
70;4
70;95
70;14
70;66
70;11
70;13
70;33
70;12
70;4
70;34
70;25
70;48
70;26
70;28
71;42
71;67
71;24
71;84
71;17
71;83
71;61
71;42
71;82
71;98
71;8
71;18
71;56
71;69
71;86
71;32
71;14
71;45
71;52
71;16
72;47
72;88
72;60
72;74
72;26
72;33
72;96
72;70
72;93
72;25
72;24
72;58
72;65
72;53
72;64
72;7
72;85
72;98
72;16
72;46
73;69
73;70
73;73
73;58
73;2
73;72
73;91
73;37
73;56
73;2
73;72
73;5
73;68
73;30
73;98
73;14
73;100
73;41
73;33
73;48
74;66
74;9
74;22
74;72
74;60
74;60
74;89
74;58
74;20
74;52
74;88
74;57
74;57
74;86
74;69
74;45
74;41
74;87
74;11
74;66
75;44
75;82
75;58
75;100
75;55
75;6
75;54
75;73
75;11
75;22
75;87
75;44
75;95
75;50
75;13
75;64
75;29
75;43
75;70
75;63
76;27
76;83
76;94
76;66
76;86
76;59
76;11
76;87
76;19
76;65
76;47
76;8
76;88
76;72
76;9
76;86
76;8
76;62
76;49
76;78
77;100
77;87
77;93
77;76
77;29
77;77
77;40
77;86
77;71
77;82
77;17
77;61
77;10
77;30
77;46
77;13
77;19
77;26
77;83
77;88
78;18
78;51
78;14
78;31
78;30
78;92
78;28
78;82
78;72
78;56
78;23
78;87
78;54
78;13
78;96
78;19
78;12
78;64
78;2
78;100
79;13
79;94
79;32
79;59
79;32
79;12
79;99
79;36
79;90
79;93
79;7
79;51
79;23
79;81
79;78
79;16
79;46
79;18
79;89
79;16
80;16
80;22
80;1
80;37
80;95
80;75
80;60
80;52
80;22
80;75
80;23
80;46
80;90
80;76
80;26
80;44
80;22
80;99
80;24
80;82
81;47
81;23
81;97
81;41
81;41
81;91
81;44
81;80
81;59
81;65
81;31
81;61
81;98
81;69
81;72
81;59
81;26
81;87
81;45
81;64
82;3
82;66
82;84
82;97
82;44
82;75
82;6
82;92
82;6
82;45
82;72
82;11
82;20
82;58
82;70
82;53
82;60
82;92
82;80
82;36
83;69
83;33
83;72
83;52
83;81
83;21
83;100
83;12
83;49
83;88
83;2
83;54
83;71
83;81
83;73
83;34
83;15
83;90
83;23
83;51
84;63
84;2
84;25
84;42
84;40
84;43
84;21
84;78
84;100
84;95
84;74
84;69
84;88
84;21
84;83
84;19
84;71
84;93
84;22
84;42
85;48
85;67
85;68
85;89
85;92
85;66
85;88
85;88
85;91
85;63
85;25
85;34
85;52
85;44
85;89
85;78
85;17
85;75
85;1
85;28
86;14
86;35
86;5
86;90
86;76
86;55
86;32
86;4
86;93
86;23
86;83
86;17
86;22
86;55
86;60
86;87
86;12
86;18
86;78
86;59
87;86
87;96
87;68
87;88
87;8
87;76
87;40
87;36
87;95
87;69
87;32
87;4
87;44
87;87
87;40
87;1
87;41
87;65
87;18
87;33
88;5
88;36
88;19
88;17
88;83
88;35
88;30
88;1
88;70
88;86
88;6
88;9
88;68
88;25
88;60
88;27
88;98
88;99
88;33
88;44
89;53
89;10
89;78
89;69
89;99
89;42
89;61
89;77
89;89
89;75
89;19
89;62
89;74
89;52
89;75
89;46
89;64
89;28
89;42
89;69
90;68
90;52
90;12
90;80
90;81
90;68
90;6
90;57
90;19
90;78
90;71
90;94
90;8
90;89
90;50
90;36
90;22
90;79
90;9
90;59
91;92
91;98
91;67
91;85
91;86
91;87
91;74
91;1
91;95
91;85
91;87
91;68
91;84
91;67
91;62
91;79
91;22
91;69
91;4
91;50
92;11
92;50
92;84
92;83
92;91
92;95
92;15
92;81
92;42
92;39
92;37
92;8
92;81
92;82
92;3
92;90
92;87
92;81
92;2
92;26
93;66
93;42
93;84
93;65
93;90
93;54
93;73
93;4
93;68
93;13
93;96
93;46
93;69
93;69
93;20
93;55
93;89
93;86
93;90
93;8
94;75
94;14
94;30
94;79
94;36
94;70
94;96
94;21
94;36
94;26
94;69
94;81
94;68
94;42
94;97
94;36
94;48
94;89
94;90
94;25
95;99
95;24
95;25
95;31
95;40
95;94
95;73
95;61
95;44
95;44
95;76
95;81
95;30
95;75
95;17
95;12
95;1
95;67
95;81
95;32
96;37
96;26
96;16
96;97
96;61
96;55
96;35
96;55
96;99
96;39
96;85
96;1
96;75
96;83
96;67
96;50
96;29
96;20
96;46
96;52
97;52
97;29
97;73
97;44
97;92
97;93
97;17
97;64
97;20
97;21
97;92
97;26
97;9
97;63
97;61
97;76
97;39
97;64
97;83
97;59
98;67
98;38
98;16
98;59
98;77
98;98
98;18
98;17
98;48
98;51
98;2
98;88
98;46
98;30
98;12
98;50
98;33
98;60
98;85
98;42
99;57
99;99
99;43
99;66
99;31
99;96
99;12
99;10
99;12
99;7
99;81
99;23
99;63
99;44
99;23
99;60
99;15
99;74
99;1
99;27
100;57
100;40
100;72
100;61
100;69
100;27
100;39
100;99
100;16
100;19
100;92
100;91
100;47
100;9
100;63
100;80
100;91
100;37
100;29
100;56